{
  "href": "https://api.spotify.com/v1/users/elijah_henderson/playlists?offset=0&limit=20",
  "items": [
    {
      "collaborative": false,
      "description": "This aesthetic was a kid&#x27;s version of Frasurbane with an emphasis on scholastic endeavors, edutainment, and an end-of-history approach to learning. Popular throughout the 90s, it used classical typography, stock photo collage, and was made possible by advancements in editing software. (via C.A.R.I.)",
      "external_urls": {},
      "href": "https://api.spotify.com/v1/playlists/2SrPxQiAt5xxo2fIVFa7wx",
      "id": "2SrPxQiAt5xxo2fIVFa7wx",
      "images": [],
      "name": "Utopian Scholastic",
      "owner": {},
      "primary_color": null,
      "public": false,
      "snapshot_id": "MTc0LGUyNzc1ZDZlZWM4MTMxNDYwMDkxMjFiZWU3MzIxYTVhOWQ3MjRmODM=",
      "tracks": {},
      "type": "playlist",
      "uri": "spotify:playlist:2SrPxQiAt5xxo2fIVFa7wx"
    },
    {
      "collaborative": false,
      "description": "With The Turtles, The Yardbirds, The Byrds and more",
      "external_urls": {},
      "href": "https://api.spotify.com/v1/playlists/37i9dQZF1E4xlTL0tLGhD6",
      "id": "37i9dQZF1E4xlTL0tLGhD6",
      "images": [],
      "name": "The Zombies Radio",
      "owner": {},
      "primary_color": null,
      "public": false,
      "snapshot_id": "MTcwMTYyNzY0NiwwMDAwMDAwMDY1N2ViMjA0MGI2MjZhMjEwZjZiOTBlN2NlMDJmZmE1",
      "tracks": {},
      "type": "playlist",
      "uri": "spotify:playlist:37i9dQZF1E4xlTL0tLGhD6"
    },
    {
      "collaborative": false,
      "description": "With John Legend, Robin Thicke, Alicia Keys, Pharrell Williams and more",
      "external_urls": {},
      "href": "https://api.spotify.com/v1/playlists/37i9dQZF1E8InXxKwqclPN",
      "id": "37i9dQZF1E8InXxKwqclPN",
      "images": [],
      "name": "Ordinary People Radio",
      "owner": {},
      "primary_color": null,
      "public": false,
      "snapshot_id": "MTcwMTYyNzk4NiwwMDAwMDAwMDkwN2U5ZWEyYTE0Yjk3MmZhZWM1ZWYxNDkxOTg1Nzk1",
      "tracks": {},
      "type": "playlist",
      "uri": "spotify:playlist:37i9dQZF1E8InXxKwqclPN"
    },
    {
      "collaborative": false,
      "description": "Your personalized GTA radio station. ",
      "external_urls": {},
      "href": "https://api.spotify.com/v1/playlists/37i9dQZF1DWUBCiFp3lAyi",
      "id": "37i9dQZF1DWUBCiFp3lAyi",
      "images": [],
      "name": "Grand Theft Auto Radio",
      "owner": {},
      "primary_color": null,
      "public": false,
      "snapshot_id": "MTY5OTg4NDAwMCwwMDAwMDAwMGZkNzExOGM3MzA2ZWVmNDQyOGQ0MGQ5MTQzNzJkYTE1",
      "tracks": {},
      "type": "playlist",
      "uri": "spotify:playlist:37i9dQZF1DWUBCiFp3lAyi"
    },
    {
      "collaborative": false,
      "description": "",
      "external_urls": {},
      "href": "https://api.spotify.com/v1/playlists/5SLOeB0utWzQNbg9B2ba4a",
      "id": "5SLOeB0utWzQNbg9B2ba4a",
      "images": [],
      "name": "NYC Z100 90s/00s",
      "owner": {},
      "primary_color": null,
      "public": false,
      "snapshot_id": "NTIsOGIwY2NlOTNhY2ZiYTU3ZTVjNjhlNmZkOTE1ODZmYWZiYjJhY2RhOA==",
      "tracks": {},
      "type": "playlist",
      "uri": "spotify:playlist:5SLOeB0utWzQNbg9B2ba4a"
    },
    {
      "collaborative": false,
      "description": "Timeless and smooth. Here are your favorite crooners. Cover: Nat King Cole. ",
      "external_urls": {},
      "href": "https://api.spotify.com/v1/playlists/37i9dQZF1DX1cC4JrF1e4o",
      "id": "37i9dQZF1DX1cC4JrF1e4o",
      "images": [],
      "name": "Crooner Classics",
      "owner": {},
      "primary_color": null,
      "public": false,
      "snapshot_id": "MTY5ODEyMjY5NCwwMDAwMDAwMDk0NzQ1YWU5MjQzN2VmMmUzZWZjNTlhYWNiYTNjYWU5",
      "tracks": {},
      "type": "playlist",
      "uri": "spotify:playlist:37i9dQZF1DX1cC4JrF1e4o"
    },
    {
      "collaborative": false,
      "description": "",
      "external_urls": {},
      "href": "https://api.spotify.com/v1/playlists/5YMW1sMr10VX5Rhr6G2MbF",
      "id": "5YMW1sMr10VX5Rhr6G2MbF",
      "images": [],
      "name": "true anti-capitalist country music",
      "owner": {},
      "primary_color": null,
      "public": false,
      "snapshot_id": "NyxiMzkyM2JjMGNiNTE0NzUzYWE3OGFkNzNlZmFkMGVjZmE2N2ZjZWM4",
      "tracks": {},
      "type": "playlist",
      "uri": "spotify:playlist:5YMW1sMr10VX5Rhr6G2MbF"
    },
    {
      "collaborative": false,
      "description": "The greatest Alternative Rock songs through the decades. Cover: The Killers",
      "external_urls": {},
      "href": "https://api.spotify.com/v1/playlists/37i9dQZF1DX9GRpeH4CL0S",
      "id": "37i9dQZF1DX9GRpeH4CL0S",
      "images": [],
      "name": "Essential Alternative",
      "owner": {},
      "primary_color": null,
      "public": false,
      "snapshot_id": "MTY4NjkxODY4MCwwMDAwMDAwMGFjYmIzZmQzYTRlZDBlMWU0ZGJhZGM0ZWQzOTc0MWM5",
      "tracks": {},
      "type": "playlist",
      "uri": "spotify:playlist:37i9dQZF1DX9GRpeH4CL0S"
    },
    {
      "collaborative": false,
      "description": "Hiphop + rap from the 90s&#x2F;early 2000s. 2Pac, Ice Cube, Wu-Tang Clan, Naughty By Nature, Will Smith + more.",
      "external_urls": {},
      "href": "https://api.spotify.com/v1/playlists/7ad5hPWrYTers7rySmepGl",
      "id": "7ad5hPWrYTers7rySmepGl",
      "images": [],
      "name": "90s kid",
      "owner": {},
      "primary_color": null,
      "public": false,
      "snapshot_id": "MjM3LDBjZDc5MTRhMzVlZGZmMjM4Mjg1NjlmN2NjZGE0NDlmOGRiYzYxNTU=",
      "tracks": {},
      "type": "playlist",
      "uri": "spotify:playlist:7ad5hPWrYTers7rySmepGl"
    },
    {
      "collaborative": false,
      "description": "A playlist as diverse as the city itself",
      "external_urls": {},
      "href": "https://api.spotify.com/v1/playlists/5ATPmIo4BY1RJ7oxIMVHmp",
      "id": "5ATPmIo4BY1RJ7oxIMVHmp",
      "images": [],
      "name": "New York, New York",
      "owner": {},
      "primary_color": null,
      "public": false,
      "snapshot_id": "NDM4LDcxNTNlOTE5M2M0ZmM0MTc0NmI4YmIwZjYzMWNkNmIwOTlhNmVhZmE=",
      "tracks": {},
      "type": "playlist",
      "uri": "spotify:playlist:5ATPmIo4BY1RJ7oxIMVHmp"
    },
    {
      "collaborative": false,
      "description": "With Suzanne Vega, Tanita Tikaram, Edie Brickell & New Bohemians, 10,000 Maniacs and more",
      "external_urls": {},
      "href": "https://api.spotify.com/v1/playlists/37i9dQZF1E8JhtbGNmHPoG",
      "id": "37i9dQZF1E8JhtbGNmHPoG",
      "images": [],
      "name": "Tom's Diner Radio",
      "owner": {},
      "primary_color": null,
      "public": false,
      "snapshot_id": "MTcwMTYyNzk4NiwwMDAwMDAwMDRiZTVmYWNiYWJlNjE2NzI2YjhiZTE5YjBhMTM1Yjhi",
      "tracks": {},
      "type": "playlist",
      "uri": "spotify:playlist:37i9dQZF1E8JhtbGNmHPoG"
    },
    {
      "collaborative": false,
      "description": "With Beat Vince, _ensnare_, Genevieve Artadi, Ed Harrison and more",
      "external_urls": {},
      "href": "https://api.spotify.com/v1/playlists/37i9dQZF1E8HuwEtPRwFFl",
      "id": "37i9dQZF1E8HuwEtPRwFFl",
      "images": [],
      "name": "Everything in Its Place Radio",
      "owner": {},
      "primary_color": null,
      "public": false,
      "snapshot_id": "MTcwMTYyNzk4NiwwMDAwMDAwMDc5YWQ5OWJjNTZiZDFhNmE0NWIwOGVmYjBjOWQ5ZGFh",
      "tracks": {},
      "type": "playlist",
      "uri": "spotify:playlist:37i9dQZF1E8HuwEtPRwFFl"
    },
    {
      "collaborative": false,
      "description": "The Last Dinner Party along with the best alternative songs of today.",
      "external_urls": {},
      "href": "https://api.spotify.com/v1/playlists/37i9dQZF1DWVqJMsgEN0F4",
      "id": "37i9dQZF1DWVqJMsgEN0F4",
      "images": [],
      "name": "ALT NOW",
      "owner": {},
      "primary_color": null,
      "public": false,
      "snapshot_id": "MTcwMTQwNjgwMCwwMDAwMDAwMDY1NzkzYzFhYmMxODY1MTlkNWEwZDFkNjNhMDA4NDdl",
      "tracks": {},
      "type": "playlist",
      "uri": "spotify:playlist:37i9dQZF1DWVqJMsgEN0F4"
    },
    {
      "collaborative": false,
      "description": "Cover: MELON - Selection of the best deep house &amp; electronic dance music to workout, game, party to - best dance music playlist - best deep house songs - workout playlist - best party music - remix playlist - gaming playlist - running playlist - house music - dance fruits music - deephouse 2023",
      "external_urls": {},
      "href": "https://api.spotify.com/v1/playlists/4EjIhZWbxJNNiHPwVh17mF",
      "id": "4EjIhZWbxJNNiHPwVh17mF",
      "images": [],
      "name": "Deep House - dance music to workout, game & party to by dance fruits",
      "owner": {},
      "primary_color": null,
      "public": false,
      "snapshot_id": "OTUwLGQyOWE1Zjg4N2ZiZjU4YzJhNDAwY2JkYWFjYmIwN2I5NTVlMjJiOWU=",
      "tracks": {},
      "type": "playlist",
      "uri": "spotify:playlist:4EjIhZWbxJNNiHPwVh17mF"
    },
    {
      "collaborative": false,
      "description": "Follow now!",
      "external_urls": {},
      "href": "https://api.spotify.com/v1/playlists/332jKl2I2qZMbQSDciJD7i",
      "id": "332jKl2I2qZMbQSDciJD7i",
      "images": [],
      "name": "Anime Sleep Lofi Playlist ",
      "owner": {},
      "primary_color": null,
      "public": false,
      "snapshot_id": "NTUsNGVkOTdjNzNjNDBjMjk2ZGUxOGU3ZDJlOTkyMWNkZDBiZDFmMmYyMA==",
      "tracks": {},
      "type": "playlist",
      "uri": "spotify:playlist:332jKl2I2qZMbQSDciJD7i"
    },
    {
      "collaborative": false,
      "description": "Music from and inspired by \"Glass Onion: A Knives Out Mystery,\" coming soon to Netflix. ",
      "external_urls": {},
      "href": "https://api.spotify.com/v1/playlists/37i9dQZF1DXb8UvzdN3YBP",
      "id": "37i9dQZF1DXb8UvzdN3YBP",
      "images": [],
      "name": "Glass Onion Official Playlist",
      "owner": {},
      "primary_color": null,
      "public": false,
      "snapshot_id": "MTY4NjgzNjM0NSwwMDAwMDAwMGE1ZmI4MGMwODQ4MWVhMDJlMDg5MzVmZGFhNGVjYjNk",
      "tracks": {},
      "type": "playlist",
      "uri": "spotify:playlist:37i9dQZF1DXb8UvzdN3YBP"
    },
    {
      "collaborative": false,
      "description": "Unofficial flashback playlist to the early 00s classic dance playlist on 103.5 WKTU in NYC",
      "external_urls": {},
      "href": "https://api.spotify.com/v1/playlists/2d2S1VQW3QtjfFe6zAouVD",
      "id": "2d2S1VQW3QtjfFe6zAouVD",
      "images": [],
      "name": "103.5 KTU Dance Classics",
      "owner": {},
      "primary_color": null,
      "public": false,
      "snapshot_id": "Mzc5LGY4NTdmMDlhYTUwMzk2YjljOWFlNGFmNjE1ZDA4YTg3OGY1YmYxOGY=",
      "tracks": {},
      "type": "playlist",
      "uri": "spotify:playlist:2d2S1VQW3QtjfFe6zAouVD"
    },
    {
      "collaborative": false,
      "description": "This is Kimya Dawson. The essential tracks, all in one playlist.",
      "external_urls": {},
      "href": "https://api.spotify.com/v1/playlists/37i9dQZF1DZ06evO3rf7YP",
      "id": "37i9dQZF1DZ06evO3rf7YP",
      "images": [],
      "name": "This Is Kimya Dawson",
      "owner": {},
      "primary_color": null,
      "public": false,
      "snapshot_id": "MjgzNjAwODksMDAwMDAwMDBiY2NlOTlmNzg2Y2MwMTA1ZjE5ODI1OTg2MmVkNDZjOQ==",
      "tracks": {},
      "type": "playlist",
      "uri": "spotify:playlist:37i9dQZF1DZ06evO3rf7YP"
    },
    {
      "collaborative": false,
      "description": "<a href=spotify:playlist:37i9dQZF1EIUZUiXYq2ax0>A Tribe Called Quest</a>, <a href=spotify:playlist:37i9dQZF1EIZCsyhLFyG4d>Kendrick Lamar</a>, <a href=spotify:playlist:37i9dQZF1EIXzDh3Npa1qb>Wu-Tang Clan</a> and more",
      "external_urls": {},
      "href": "https://api.spotify.com/v1/playlists/37i9dQZF1EQnqst5TRi17F",
      "id": "37i9dQZF1EQnqst5TRi17F",
      "images": [],
      "name": "Hip Hop Mix",
      "owner": {},
      "primary_color": null,
      "public": false,
      "snapshot_id": "MTcwMTU4MzIwMCwwMDAwMDAwMDU1YjE4MjQzNjhiY2E2ODYyZWM5Nzg5ZmE3ZDQwM2Rl",
      "tracks": {},
      "type": "playlist",
      "uri": "spotify:playlist:37i9dQZF1EQnqst5TRi17F"
    },
    {
      "collaborative": false,
      "description": "New York City Jazz music picked just for you",
      "external_urls": {},
      "href": "https://api.spotify.com/v1/playlists/37i9dQZF1EIgpSieWN6UCp",
      "id": "37i9dQZF1EIgpSieWN6UCp",
      "images": [],
      "name": "New York City Jazz Mix",
      "owner": {},
      "primary_color": null,
      "public": true,
      "snapshot_id": "MTk2OTQsMDAwMDAwMDAyNDA3MDVkNWNlZDIzNjE4NjY2NmRjNjkzNzRiOTk0OA==",
      "tracks": {},
      "type": "playlist",
      "uri": "spotify:playlist:37i9dQZF1EIgpSieWN6UCp"
    }
  ],
  "limit": 20,
  "next": "https://api.spotify.com/v1/users/elijah_henderson/playlists?offset=20&limit=20",
  "offset": 0,
  "previous": null,
  "total": 114
}
